<?xml version="1.0" encoding="UTF-8"?>
<phploc>
  <directories>9</directories>
  <files>78</files>
  <loc>9961</loc>
  <lloc>3430</lloc>
  <llocClasses>2427</llocClasses>
  <llocFunctions>0</llocFunctions>
  <llocGlobal>1003</llocGlobal>
  <cloc>465</cloc>
  <ccn>649</ccn>
  <ccnMethods>431</ccnMethods>
  <interfaces>0</interfaces>
  <traits>0</traits>
  <classes>18</classes>
  <abstractClasses>0</abstractClasses>
  <concreteClasses>18</concreteClasses>
  <functions>1</functions>
  <namedFunctions>0</namedFunctions>
  <anonymousFunctions>1</anonymousFunctions>
  <methods>175</methods>
  <publicMethods>158</publicMethods>
  <nonPublicMethods>17</nonPublicMethods>
  <nonStaticMethods>175</nonStaticMethods>
  <staticMethods>0</staticMethods>
  <constants>0</constants>
  <classConstants>0</classConstants>
  <globalConstants>0</globalConstants>
  <testClasses>0</testClasses>
  <testMethods>0</testMethods>
  <ccnByLloc>0.189212827988</ccnByLloc>
  <llocByNof>0</llocByNof>
  <methodCalls>933</methodCalls>
  <staticMethodCalls>15</staticMethodCalls>
  <instanceMethodCalls>918</instanceMethodCalls>
  <attributeAccesses>899</attributeAccesses>
  <staticAttributeAccesses>0</staticAttributeAccesses>
  <instanceAttributeAccesses>899</instanceAttributeAccesses>
  <globalAccesses>25</globalAccesses>
  <globalVariableAccesses>0</globalVariableAccesses>
  <superGlobalVariableAccesses>25</superGlobalVariableAccesses>
  <globalConstantAccesses>0</globalConstantAccesses>
  <classCcnMin>1</classCcnMin>
  <classCcnAvg>24.9444444444</classCcnAvg>
  <classCcnMax>196</classCcnMax>
  <classLlocMin>7</classLlocMin>
  <classLlocAvg>134.833333333</classLlocAvg>
  <classLlocMax>875</classLlocMax>
  <methodCcnMin>1</methodCcnMin>
  <methodCcnAvg>3.44252873563</methodCcnAvg>
  <methodCcnMax>18</methodCcnMax>
  <methodLlocMin>1</methodLlocMin>
  <methodLlocAvg>13.7471264368</methodLlocAvg>
  <methodLlocMax>51</methodLlocMax>
  <namespaces>0</namespaces>
  <ncloc>9496</ncloc>
</phploc>
